rQCD_TopoEtCone20_Low____0trig:: all ::prong  0 ::eta  0 ::ID  2 = 1.175 +- 0.016 +- 0.035  
rQCD__PtVarCone30_Low____0trig:: all ::prong  0 ::eta  0 ::ID  2 = 1.175 +- 0.016 +- 0.018  
rQCD_TopoEtCone20_High___0trig:: all ::prong  0 ::eta  0 ::ID  2 = 1.248 +- 0.020 +- 0.028  
rQCD__PtVarCone30_High___0trig:: all ::prong  0 ::eta  0 ::ID  2 = 1.248 +- 0.020 +- 0.018  
rQCD_TopoEtCone20_Low____0trig:: all ::prong  1 ::eta  0 ::ID  2 = 1.149 +- 0.018 +- 0.016  
rQCD__PtVarCone30_Low____0trig:: all ::prong  1 ::eta  0 ::ID  2 = 1.149 +- 0.018 +- 0.017  
rQCD_TopoEtCone20_High___0trig:: all ::prong  1 ::eta  0 ::ID  2 = 1.213 +- 0.022 +- 0.047  
rQCD__PtVarCone30_High___0trig:: all ::prong  1 ::eta  0 ::ID  2 = 1.213 +- 0.022 +- 0.019  
rQCD_TopoEtCone20_Low____0trig:: all ::prong  3 ::eta  0 ::ID  2 = 1.243 +- 0.030 +- 0.098  
rQCD__PtVarCone30_Low____0trig:: all ::prong  3 ::eta  0 ::ID  2 = 1.243 +- 0.030 +- 0.052  
rQCD_TopoEtCone20_High___0trig:: all ::prong  3 ::eta  0 ::ID  2 = 1.392 +- 0.053 +- 0.134  
rQCD__PtVarCone30_High___0trig:: all ::prong  3 ::eta  0 ::ID  2 = 1.392 +- 0.053 +- 0.033  
